module gitlab.com/rigel314/go-puzzlefrenzy

go 1.19

require golang.org/x/mobile v0.0.0-20221110043201-43a038452099

require (
	golang.org/x/exp v0.0.0-20190731235908-ec7cb31e5a56 // indirect
	golang.org/x/image v0.0.0-20190802002840-cff245a6509b // indirect
	golang.org/x/sys v0.0.0-20220722155257-8c9f86f7a55f // indirect
)
